<?xml version="1.0" encoding="UTF-8"?>
<svg viewBox="0 0 85.128609 65.348602" xmlns="http://www.w3.org/2000/svg">
 <defs>
  <filter id="c">
   <feGaussianBlur stdDeviation="5.8264"/>
  </filter>
  <filter id="d">
   <feGaussianBlur stdDeviation=".8532"/>
  </filter>
  <filter id="b" x="-.15696" y="-.11389" width="1.3139" height="1.2278">
   <feGaussianBlur stdDeviation=".4103"/>
  </filter>
  <linearGradient id="a" x1="614" x2="620.27" gradientUnits="userSpaceOnUse">
   <stop stop-color="#ccc" stop-opacity="0" offset="0"/>
   <stop stop-color="#a5a5a5" offset=".5"/>
   <stop stop-color="#555" offset="1"/>
  </linearGradient>
 </defs>
 <g transform="translate(-582.23 -386.32)">
  <path d="m641.5 400.78c-2.124 0.0179-4.1162 0.33566-5.5982 1.1913l-33.111 19.426c-0.33157 0.19143-0.49734 0.42343-0.50205 0.66941l-6e-5 7.2494c-4e-3 0.32201 0.2674 0.66773 0.80409 0.97758l12.525 7.2316c0.94884 0.54781 2.0926 0.61767 2.8552 0.17736l33.117-19.426c1.5154-0.8749 2.2523-2.0521 2.2516-3.3094l2e-4 -7.2951c-0.0256-1.6437-1.3068-3.419-3.7537-4.8317-2.5125-1.4506-5.6779-2.085-8.5885-2.0605z" fill="#fff" fill-rule="evenodd"/>
  <path d="m614 429.34v7.2459l1.6217 0.9363c0.94884 0.54781 2.0926 0.61767 2.8552 0.17736l1.7975-1.037v-7.2459l-1.7975 1.037c-0.76265 0.44031-1.9064 0.37045-2.8552-0.17736l-1.6217-0.9363z" fill="url(#a)" fill-rule="evenodd" filter="url(#b)" opacity=".3"/>
  <path d="m603.09 423.05 12.525 7.2311c0.94884 0.54781 2.0946 0.62114 2.8553 0.17751l33.126-19.318c3.504-2.0434 2.844-5.6808-1.502-8.19s-10.675-2.8965-14.187-0.86831l-33.12 19.317c-0.76696 0.4428-0.6457 1.1032 0.30314 1.651" fill="#fff" fill-rule="evenodd"/>
  <path transform="matrix(.05113 0 0 .05113 601.44 393.73)" d="m1024.8 275.73c-1.39 24.612-14.32 42.96-31.243 56.476l-655.17 383.07c-28.689 16.447-44.443 6.9636-63.971-2.0231l-233.1-135.34c-32.06-15.808-27.874-26.862-14.939-36.769" fill="none" filter="url(#c)" stroke="#000" stroke-width="4"/>
  <path d="m641.38 400.15c-2.4087 9e-3 -4.8261 0.677-6.8192 2.044-4.5061 2.6211-27.864 16.3-32.343 18.965-0.62734 0.55245-0.40249 1.4664-0.43046 2.199v1.6354c-3.1007 1.8032-6.2244 3.553-9.3006 5.4006-0.36566 0.57754-0.0832 1.2982-0.16794 1.9362 0.033 1.3779-0.1012 2.7742 0.0787 4.1405 0.51945 0.566 1.3006 0.77307 1.9164 1.215 3.1294 1.7905 6.2329 3.6321 9.3768 5.3904 0.68008 0.0447 1.1393-0.55542 1.7285-0.79179l8.6924-5.0202c1.1165 0.67418 2.3582 1.495 3.7289 1.2464 1.2139-0.24793 2.1568-1.1212 3.2484-1.6515 4.2608-2.4847 27.388-16.005 31.609-18.554 1.1865-0.86556 1.8006-2.3177 1.7954-3.829-0.0374-2.4875-0.0309-4.9339-0.0713-7.4647-0.42486-2.032-2.0869-3.5064-3.8015-4.5224-2.77-1.6534-6.0311-2.371-9.2401-2.339z" fill="none" stroke="#000" stroke-linecap="round" stroke-linejoin="round" stroke-width="1.3137"/>
  <g transform="matrix(.05113 0 0 .05113 601.44 393.73)">
   <path d="m-168.77 830.91 214.8 124.02 214.8-124.02-214.8-124.02-214.8 124.02z" fill="#808080" fill-rule="evenodd"/>
   <path d="m-165.7 829.13 217.87-125.79v-99.213l-217.87 125.79v99.213z" fill="#4d4d4d" fill-rule="evenodd"/>
   <path d="m30.686 928.35 228.14-132.87v-17.717l-228.14 132.87v17.717z" fill="#b3b3b3" fill-rule="evenodd"/>
   <path d="m-153.43 822.05v-17.717l184.12 106.3v17.717l-184.12-106.3z" fill="#ececec" fill-rule="evenodd"/>
   <path d="m30.686 910.63-184.12-106.3 230.14-132.87 184.12 106.3-230.14 132.87z" fill="#ccc" fill-rule="evenodd"/>
   <path d="m-103.86 802.29 23.014 13.287 203.59-117.54-23.014-13.287-203.59 117.54m38.357 22.146 23.014 13.287 203.59-117.54-23.014-13.287-203.59 117.54m38.357 22.146 23.014 13.287 203.59-117.54-23.014-13.287-203.59 117.54m38.357 22.146 23.014 13.287 203.59-117.54-23.014-13.287-203.59 117.54" fill="#808080" fill-rule="evenodd"/>
   <path d="m46.031 600.59-214.81 124 214.81 124.03 214.81-124.03-214.81-124zm-15.344 79.719 30.688 17.719-61.375 35.438-30.688-17.719 61.375-35.438zm61.375 35.438 30.688 17.719-61.375 35.438-30.688-17.719 61.375-35.438z" fill="#808080" fill-rule="evenodd"/>
   <path d="m46.029 954.92v-106.3l214.8-124.02v106.3l-214.8 124.02z" fill="#4d4d4d" fill-rule="evenodd"/>
   <path d="m-27.617 717.52-3.0686-1.7716 61.372-35.433v3.5433l-58.303 33.661z" fill="#333" fill-rule="evenodd"/>
   <path d="m30.686 680.31v3.5433l27.617 15.945 3.0686-1.7717-30.686-17.717z" fill="#e6e6e6" fill-rule="evenodd"/>
   <path d="m-168.78 724.59v106.31l214.81 124v-106.28l-214.81-124.03zm3.0625 5.3125 208.69 120.5v99.188l-208.69-120.47v-99.219z" fill="#e6e6e6" fill-rule="evenodd"/>
   <path d="m33.755 752.95-3.0686-1.7716 61.372-35.433v3.5433l-58.303 33.661z" fill="#333" fill-rule="evenodd"/>
   <path d="m92.058 715.75v3.5433l27.617 15.945 3.0686-1.7717-30.686-17.717z" fill="#e6e6e6" fill-rule="evenodd"/>
   <path d="m33.755 752.95 58.303-33.661 27.617 15.945-58.303 33.661-27.617-15.945z" fill-rule="evenodd" opacity=".6"/>
   <path d="m-27.617 717.52 58.303-33.661 27.617 15.945-58.303 33.661-27.617-15.945z" fill-rule="evenodd" opacity=".6"/>
   <path d="m47.104 848.01 211.29-122" fill="none" filter="url(#d)" opacity=".24" stroke="#fff" stroke-width="4"/>
  </g>
  <path d="m617.19248,417.71302c-.47841.27621-.48947.74039-.0849,1.14446l-2.29065,1.32251c-.0589.0339-.0968.0788-.11001.13003l-.91345,3.59337-.73609.42498c-.71567-.25803-1.55754-.26063-2.05204.0249-.60292.3481-.46159.99472.31547,1.44336s1.89704.53022 2.49997.18213c.47731-.27558.48705-.7392.0853-1.14262l.92603-.53465 .005.001 .00059-.005 2.05601-1.18703 .002.003 5.55496-.47168c.0893-.007.1676-.0287.22702-.0625l2.09372-1.20881 .57604.33258 .28803.16629 .22348-.12902 1.75989-1.01608 .22348-.12903-.28802-.16629-2.12058-1.22431-.28802-.16629-.22348.12902-1.7599,1.01608-.22348.12903 .28803.16629 .68045.39286-2.00293,1.15639-3.67561.31163 7.8888-4.55461 1.10889.64022 .39784.22969 .0702-.26915 .5233-2.06065 .0716-.26997-.46799.0395-3.57235.3019-.46619.0405 .39783.22969 1.07289.61943-10.118,5.84163 .63605-2.50198 2.1873-1.26284c.71466.25637 1.55361.25874 2.04704-.0261 .60292-.3481.46339-.99368-.31366-1.44232s-1.89705-.53023-2.49997-.18213" opacity=".7655"/>
 </g>
</svg>
